[
	{"data":{"total":823,"per_page":"20","current_page":1,"last_page":42,"next_page_url":"http:\/\/star-api.info.iii-space.com\/admin\/stars?page=2","prev_page_url":null,"from":1,"to":20,"data":[{"qualified":null,"second_responser":null,"workcode":"007544","star_type":null,"good_at":"","critical_degree":null,"future_position":null,"term_id":"2017-09","deleted_at":null,"name":"\u5362\u7ea2\u519b","gender":"\u7537","job":"\u6559\u5b66\u6559\u7814\u526f\u7ecf\u7406","position":"\u57f9\u4f18\u897f\u5b89\u5206\u6821\u6559\u7814\u90e8\u6559\u7814\u7ecf\u7406","level":"3.1","this_level_on":"2\u5e742\u4e2a\u6708","academic_degree":"\u672c\u79d1","university":"\u90d1\u5dde\u5927\u5b66","major":"\u6750\u6599\u79d1\u5b66\u4e0e\u5de5\u7a0b","study_form":"\u5168\u65e5\u5236","is_985":2,"is_211":1,"hr_status":"A","hr_position":2,"department_id":"D1000079","sub_department":"\u57f9\u4f18-\u897f\u5b89\u5206\u6821","team":"\u57f9\u4f18-\u897f\u5b89\u5206\u6821-\u6559\u7814\u90e8","team_id":"D1000531","department_path":"D1000001-D1004200-D1000079-D1000524-D1000531","department":"\u57f9\u4f18\u4e8b\u4e1a\u90e8"},{"qualified":null,"second_responser":null,"workcode":"008467","star_type":null,"good_at":"","critical_degree":null,"future_position":null,"term_id":"2017-09","deleted_at":null,"name":"\u674e\u4e39\u840d","gender":"\u5973","job":"\u6559\u52a1\u8fd0\u8425\u9ad8\u7ea7\u7ecf\u7406","position":"\u57f9\u4f18-\u6df1\u5733\u5206\u6821-\u6559\u52a1\u90e8-\u8fd0\u8425\u90e8\u670d\u52a1\u7ba1\u7406\u4e3b\u4efb","level":"3.3","this_level_on":"6\u5e742\u4e2a\u6708","academic_degree":"\u7855\u58eb\u7814\u7a76\u751f","university":"\u5317\u4eac\u5927\u5b66","major":" ","study_form":"\u5168\u65e5\u5236","is_985":1,"is_211":1,"hr_status":"A","hr_position":2,"department_id":"D1000079","sub_department":"\u57f9\u4f18-\u6df1\u5733\u5206\u6821","team":"\u57f9\u4f18-\u6df1\u5733\u5206\u6821-\u6559\u52a1\u90e8","team_id":"D1000510","department_path":"D1000001-D1004200-D1000079-D1000479-D1000510","department":"\u57f9\u4f18\u4e8b\u4e1a\u90e8"},{"qualified":null,"second_responser":null,"workcode":"007605","star_type":null,"good_at":"","critical_degree":null,"future_position":null,"term_id":"2017-09","deleted_at":null,"name":"\u8521\u5a77","gender":"\u5973","job":"\u5b66\u79d1\u9ad8\u7ea7\u4e3b\u7ba1","position":"\u57f9\u4f18-\u6b66\u6c49\u5206\u6821-\u82f1\u8bed\u4e1a\u52a1\u90e8\u4e1a\u52a1\u7ecf\u7406","level":"3.1","this_level_on":"2\u4e2a\u6708","academic_degree":"\u672c\u79d1","university":"\u534e\u4e2d\u519c\u4e1a\u5927\u5b66","major":"\u82f1\u8bed","study_form":"\u5168\u65e5\u5236","is_985":2,"is_211":1,"hr_status":"A","hr_position":2,"department_id":"D1000079","sub_department":"\u57f9\u4f18-\u6b66\u6c49\u5206\u6821","team":"\u57f9\u4f18-\u6b66\u6c49\u5206\u6821-\u82f1\u8bed\u4e1a\u52a1\u90e8","team_id":"D1002713","department_path":"D1000001-D1004200-D1000079-D1000410-D1002713","department":"\u57f9\u4f18\u4e8b\u4e1a\u90e8"},{"qualified":null,"second_responser":null,"workcode":"006965","star_type":null,"good_at":"","critical_degree":null,"future_position":null,"term_id":"2017-09","deleted_at":null,"name":"\u5218\u9759","gender":"\u5973","job":"\u4eba\u529b\u8d44\u6e90\u526f\u7ecf\u7406","position":"\u57f9\u4f18-\u6210\u90fd\u5206\u6821-\u4eba\u529b\u8d44\u6e90\u90e8\u4eba\u529b\u8d44\u6e90\u7ecf\u7406","level":"3.1","this_level_on":"1\u5e748\u4e2a\u6708","academic_degree":"\u672c\u79d1","university":"\u56db\u5ddd\u5e08\u8303\u5927\u5b66","major":"\u82f1\u8bed","study_form":"\u5168\u65e5\u5236","is_985":2,"is_211":2,"hr_status":"A","hr_position":2,"department_id":"D1000079","sub_department":"\u57f9\u4f18-\u6210\u90fd\u5206\u6821","team":"\u57f9\u4f18-\u6210\u90fd\u5206\u6821-\u4eba\u529b\u8d44\u6e90\u90e8","team_id":"D1000595","department_path":"D1000001-D1004200-D1000079-D1000586-D1000595","department":"\u57f9\u4f18\u4e8b\u4e1a\u90e8"},{"qualified":null,"second_responser":null,"workcode":"005235","star_type":null,"good_at":"","critical_degree":null,"future_position":null,"term_id":"2017-09","deleted_at":null,"name":"\u9648\u6d01\u92ae","gender":"\u5973","job":"\u4eba\u529b\u8d44\u6e90\u7ecf\u7406","position":"\u57f9\u4f18-\u5e7f\u5dde\u5206\u6821-\u4eba\u529b\u8d44\u6e90\u90e8-\u7efc\u5408\u4eba\u529b\u7ecf\u7406","level":"3.2","this_level_on":"3\u5e745\u4e2a\u6708","academic_degree":"\u672c\u79d1","university":"\u534e\u5357\u5e08\u8303\u5927\u5b66","major":"\u4eba\u529b\u8d44\u6e90\u7ba1\u7406","study_form":"\u5168\u65e5\u5236","is_985":2,"is_211":1,"hr_status":"A","hr_position":2,"department_id":"D1000079","sub_department":"\u57f9\u4f18-\u5e7f\u5dde\u5206\u6821","team":"\u57f9\u4f18-\u5e7f\u5dde\u5206\u6821-\u4eba\u529b\u8d44\u6e90\u90e8","team_id":"D1000461","department_path":"D1000001-D1004200-D1000079-D1000443-D1000461","department":"\u57f9\u4f18\u4e8b\u4e1a\u90e8"},{"qualified":null,"second_responser":null,"workcode":"001598","star_type":"\u5f00\u521b\u578b \u8fd0\u8425\u578b \u53d8\u9769\u578b \u4e13\u5bb6\u578b","good_at":"\u54c1\u724c \u804c\u80fd \u9500\u552e","critical_degree":null,"future_position":null,"term_id":"2017-09","deleted_at":null,"name":"\u738b\u946b","gender":"\u7537","job":"\u6821\u957f","position":"\u57f9\u4f18-\u5e38\u5dde\u5206\u6821-\u533a\u57df\u8fd0\u8425\u90e8\u6b66\u8fdb\u4f53\u9a8c\u5e97O1\u6821\u957f","level":"4.1","this_level_on":"11\u4e2a\u6708","academic_degree":"\u672c\u79d1","university":"\u5317\u4eac\u7406\u5de5\u5927\u5b66","major":"\u4fe1\u606f\u4e0e\u8ba1\u7b97\u79d1\u5b66","study_form":"\u5168\u65e5\u5236","is_985":2,"is_211":2,"hr_status":"A","hr_position":1,"department_id":"D1000079","sub_department":"\u57f9\u4f18-\u5e38\u5dde\u5206\u6821","team":"\u57f9\u4f18-\u5e38\u5dde\u5206\u6821-\u533a\u57df\u8fd0\u8425\u90e8-\u6b66\u8fdb\u4f53\u9a8c\u5e97","team_id":"D1004990","department_path":"D1000001-D1004200-D1000079-D1003577-D1004989-D1004990","department":"\u57f9\u4f18\u4e8b\u4e1a\u90e8"},{"qualified":null,"second_responser":null,"workcode":"073215","star_type":null,"good_at":"","critical_degree":null,"future_position":null,"term_id":"2017-09","deleted_at":null,"name":"\u5b59\u6ee8","gender":"\u7537","job":"\u540e\u53f0\u7814\u53d1\u4e13\u5bb6","position":"\u57f9\u4f18\u603b\u90e8\u901a\u7528\u4ea7\u54c1\u7814\u53d1\u90e8\u5fae\u4fe1\u4ea7\u54c1\u7ec4\u7814\u53d1\u7ec4\u6280\u672f\u7ecf\u7406","level":"3.1","this_level_on":"2\u4e2a\u6708","academic_degree":"\u7855\u58eb\u7814\u7a76\u751f","university":"\u5317\u4eac\u5927\u5b66","major":"\u8f6f\u4ef6\u4e0e\u5fae\u7535\u5b50","study_form":"\u975e\u5168\u65e5\u5236","is_985":2,"is_211":2,"hr_status":"A","hr_position":2,"department_id":"D1000079","sub_department":"\u57f9\u4f18-\u57f9\u4f18\u603b\u90e8","team":"\u57f9\u4f18-\u57f9\u4f18\u603b\u90e8-\u901a\u7528\u4ea7\u54c1\u7814\u53d1\u90e8-\u5fae\u4fe1\u4ea7\u54c1\u7ec4-\u7814\u53d1\u7ec4","team_id":"D1002283","department_path":"D1000001-D1004200-D1000079-D1000080-D1002044-D1004802-D1001554-D1002283","department":"\u57f9\u4f18\u4e8b\u4e1a\u90e8"},{"qualified":null,"second_responser":null,"workcode":"008589","star_type":"\u5f00\u521b\u578b \u8fd0\u8425\u578b \u53d8\u9769\u578b \u4e13\u5bb6\u578b","good_at":"","critical_degree":null,"future_position":null,"term_id":"2017-09","deleted_at":null,"name":"\u7fc1\u4e30\u5029","gender":"\u7537","job":"\u4ea7\u54c1\u9ad8\u7ea7\u7ecf\u7406","position":"\u57f9\u4f18\u603b\u90e8\u901a\u7528\u4ea7\u54c1\u7814\u53d1\u90e8\u5fae\u4fe1\u4ea7\u54c1\u7ec4\u4ea7\u54c1\u7ecf\u7406","level":"3.3","this_level_on":"2\u4e2a\u6708","academic_degree":"\u672c\u79d1","university":"\u4e2d\u5c71\u5927\u5b66","major":"\u5730\u7406\u79d1\u5b66","study_form":"\u5168\u65e5\u5236","is_985":1,"is_211":1,"hr_status":"A","hr_position":2,"department_id":"D1000079","sub_department":"\u57f9\u4f18-\u57f9\u4f18\u603b\u90e8","team":"\u57f9\u4f18-\u57f9\u4f18\u603b\u90e8-\u901a\u7528\u4ea7\u54c1\u7814\u53d1\u90e8-\u5fae\u4fe1\u4ea7\u54c1\u7ec4","team_id":"D1001554","department_path":"D1000001-D1004200-D1000079-D1000080-D1002044-D1004802-D1001554","department":"\u57f9\u4f18\u4e8b\u4e1a\u90e8"},{"qualified":null,"second_responser":null,"workcode":"010017","star_type":null,"good_at":"","critical_degree":null,"future_position":null,"term_id":"2017-09","deleted_at":null,"name":"\u674e\u6587\u946b","gender":"\u7537","job":"\u4eba\u529b\u8d44\u6e90\u526f\u7ecf\u7406","position":"\u57f9\u4f18\u603b\u90e8\u9009\u8058\u5b66\u9662\u5927\u533a\u7ba1\u7406\u4e8c\u7ec4\u534e\u5357\u7ec4\u62db\u8058\u7ecf\u7406","level":"3.1","this_level_on":"3\u4e2a\u6708","academic_degree":"\u672c\u79d1","university":"\u4e2d\u5c71\u5927\u5b66","major":"\u516c\u5171\u5173\u7cfb","study_form":"\u5168\u65e5\u5236","is_985":1,"is_211":2,"hr_status":"A","hr_position":2,"department_id":"D1000079","sub_department":"\u57f9\u4f18-\u57f9\u4f18\u603b\u90e8","team":"\u57f9\u4f18-\u57f9\u4f18\u603b\u90e8-\u9009\u8058\u5b66\u9662-\u5927\u533a\u7ba1\u7406\u4e8c\u7ec4-\u534e\u5357\u7ec4","team_id":"D1005518","department_path":"D1000001-D1004200-D1000079-D1000080-D1002045-D1000108-D1005511-D1005518","department":"\u57f9\u4f18\u4e8b\u4e1a\u90e8"},{"qualified":null,"second_responser":null,"workcode":"008651","star_type":null,"good_at":"","critical_degree":null,"future_position":null,"term_id":"2017-09","deleted_at":null,"name":"\u845b\u5b9d","gender":"\u7537","job":"\u4eba\u529b\u8d44\u6e90\u526f\u7ecf\u7406","position":"\u57f9\u4f18\u57f9\u4f18\u603b\u90e8\u9009\u8058\u5b66\u9662\u62db\u8058\u7ecf\u7406","level":"3.1","this_level_on":"9\u4e2a\u6708","academic_degree":"\u7855\u58eb\u7814\u7a76\u751f","university":"\u9655\u897f\u5e08\u8303\u5927\u5b66","major":"\u751f\u7406\u5b66","study_form":"\u5168\u65e5\u5236","is_985":2,"is_211":1,"hr_status":"A","hr_position":2,"department_id":"D1000079","sub_department":"\u57f9\u4f18-\u57f9\u4f18\u603b\u90e8","team":"\u57f9\u4f18-\u57f9\u4f18\u603b\u90e8-\u9009\u8058\u5b66\u9662","team_id":"D1000108","department_path":"D1000001-D1004200-D1000079-D1000080-D1002045-D1000108","department":"\u57f9\u4f18\u4e8b\u4e1a\u90e8"},{"qualified":null,"second_responser":null,"workcode":"048520","star_type":null,"good_at":"","critical_degree":null,"future_position":null,"term_id":"2017-09","deleted_at":null,"name":"\u6c88\u6d01","gender":"\u5973","job":"\u6559\u5b66\u6559\u7814\u7ecf\u7406","position":"\u57f9\u4f18\u603b\u90e8-\u82f1\u8bed\u4ea7\u54c1\u90e8-\u7ebf\u4e0a\u4ea7\u7814\u90e8-\u7ecf\u7406","level":"3.2","this_level_on":"1\u5e742\u4e2a\u6708","academic_degree":"\u7855\u58eb\u7814\u7a76\u751f","university":"\u82ac\u5170\u56fe\u5c14\u5e93\u5927\u5b66","major":"\u6559\u80b2\u5b66","study_form":"\u5168\u65e5\u5236","is_985":2,"is_211":2,"hr_status":"A","hr_position":2,"department_id":"D1000079","sub_department":"\u57f9\u4f18-\u57f9\u4f18\u603b\u90e8","team":"\u57f9\u4f18-\u57f9\u4f18\u603b\u90e8-\u82f1\u8bed\u4ea7\u54c1\u90e8-\u7ebf\u4e0a\u4ea7\u7814\u90e8","team_id":"D1003823","department_path":"D1000001-D1004200-D1000079-D1000080-D1003025-D1002964-D1003823","department":"\u57f9\u4f18\u4e8b\u4e1a\u90e8"},{"qualified":null,"second_responser":null,"workcode":"001501","star_type":null,"good_at":"","critical_degree":null,"future_position":null,"term_id":"2017-09","deleted_at":null,"name":"\u66f9\u5a67","gender":"\u5973","job":"\u6559\u5b66\u6559\u7814\u526f\u7ecf\u7406","position":"\u57f9\u4f18\u603b\u90e8\u82f1\u8bed\u4ea7\u54c1\u90e8\u6559\u5b66\u90e8\u9009\u57f9\u7ec4\u5929\u6d25\u57fa\u5730\u5b66\u79d1\u4e3b\u4efb","level":"3.1","this_level_on":"9\u5e741\u4e2a\u6708","academic_degree":"\u672c\u79d1","university":"\u5929\u6d25\u5e08\u8303\u5927\u5b66","major":"\u4fe1\u606f\u7ba1\u7406\u4e0e\u4fe1\u606f\u7cfb\u7edf","study_form":"\u5168\u65e5\u5236","is_985":2,"is_211":2,"hr_status":"A","hr_position":2,"department_id":"D1000079","sub_department":"\u57f9\u4f18-\u57f9\u4f18\u603b\u90e8","team":"\u57f9\u4f18-\u57f9\u4f18\u603b\u90e8-\u82f1\u8bed\u4ea7\u54c1\u90e8-\u6559\u5b66\u90e8-\u9009\u57f9\u7ec4-\u5929\u6d25\u57f9\u8bad\u57fa\u5730","team_id":"D1004159","department_path":"D1000001-D1004200-D1000079-D1000080-D1003025-D1002964-D1002965-D1005474-D1004159","department":"\u57f9\u4f18\u4e8b\u4e1a\u90e8"},{"qualified":null,"second_responser":null,"workcode":"007673","star_type":null,"good_at":"","critical_degree":null,"future_position":null,"term_id":"2017-09","deleted_at":null,"name":"\u675c\u5fb7\u7ea2","gender":"\u5973","job":"\u6559\u5b66\u6559\u7814\u9ad8\u7ea7\u7ecf\u7406","position":"\u57f9\u4f18\u603b\u90e8\u82f1\u8bed\u4ea7\u54c1\u90e8\u6559\u5b66\u90e8\u9009\u57f9\u7ec4\u6559\u5b66\u4e3b\u4efb","level":"3.3","this_level_on":"6\u5e743\u4e2a\u6708","academic_degree":"\u672c\u79d1","university":"\u5409\u6797\u5e08\u8303\u5927\u5b66","major":"\u82f1\u8bed\u8bed\u8a00\u6587\u5b66","study_form":"\u5168\u65e5\u5236","is_985":2,"is_211":2,"hr_status":"A","hr_position":2,"department_id":"D1000079","sub_department":"\u57f9\u4f18-\u57f9\u4f18\u603b\u90e8","team":"\u57f9\u4f18-\u57f9\u4f18\u603b\u90e8-\u82f1\u8bed\u4ea7\u54c1\u90e8-\u6559\u5b66\u90e8-\u9009\u57f9\u7ec4","team_id":"D1005474","department_path":"D1000001-D1004200-D1000079-D1000080-D1003025-D1002964-D1002965-D1005474","department":"\u57f9\u4f18\u4e8b\u4e1a\u90e8"},{"qualified":null,"second_responser":null,"workcode":"049593","star_type":null,"good_at":"","critical_degree":null,"future_position":null,"term_id":"2017-09","deleted_at":null,"name":"\u97e9\u8fd0\u98de","gender":"\u7537","job":"\u5e02\u573a\u8425\u9500\u7ecf\u7406","position":"\u57f9\u4f18\u603b\u90e8\u82f1\u8bed\u4ea7\u54c1\u90e8\u54c1\u724c\u90e8\u54c1\u724c\u7ecf\u7406","level":"3.2","this_level_on":"1\u5e741\u4e2a\u6708","academic_degree":"\u672c\u79d1","university":"\u97e9\u56fd\u9996\u5c14\u4e2d\u592e\u5927\u5b66\uff08\u9996\u5c14\u6821\u533a\uff09","major":"\u97e9\u56fd\u8bed\u5bf9\u5916\u6559\u80b2","study_form":"\u5168\u65e5\u5236","is_985":2,"is_211":2,"hr_status":"A","hr_position":2,"department_id":"D1000079","sub_department":"\u57f9\u4f18-\u57f9\u4f18\u603b\u90e8","team":"\u57f9\u4f18-\u57f9\u4f18\u603b\u90e8-\u82f1\u8bed\u4ea7\u54c1\u90e8-\u54c1\u724c\u90e8","team_id":"D1004171","department_path":"D1000001-D1004200-D1000079-D1000080-D1003025-D1002964-D1004171","department":"\u57f9\u4f18\u4e8b\u4e1a\u90e8"},{"qualified":null,"second_responser":null,"workcode":"000067","star_type":null,"good_at":"","critical_degree":null,"future_position":null,"term_id":"2017-09","deleted_at":null,"name":"\u9ec4\u7855","gender":"\u7537","job":"\u5b66\u79d1\u7ecf\u7406","position":"\u57f9\u4f18\u603b\u90e8\u7ade\u8d5b\u90e8\u7ade\u8d5b\u8d44\u6e90\u7ef4\u62a4\u7ade\u8d5b\u5b66\u79d1\u4e3b\u4efb","level":"3.2","this_level_on":"1\u5e743\u4e2a\u6708","academic_degree":"\u672c\u79d1","university":"\u4e2d\u56fd\u5730\u8d28\u5927\u5b66","major":"\u8ba1\u7b97\u673a\u79d1\u5b66","study_form":"\u975e\u5168\u65e5\u5236","is_985":2,"is_211":2,"hr_status":"A","hr_position":2,"department_id":"D1000079","sub_department":"\u57f9\u4f18-\u57f9\u4f18\u603b\u90e8","team":"\u57f9\u4f18-\u57f9\u4f18\u603b\u90e8-\u7ade\u8d5b\u4e00\u90e8-\u7ade\u8d5b\u8d44\u6e90\u7ef4\u62a4","team_id":"D1001718","department_path":"D1000001-D1004200-D1000079-D1000080-D1002045-D1000205-D1001718","department":"\u57f9\u4f18\u4e8b\u4e1a\u90e8"},{"qualified":null,"second_responser":null,"workcode":"035279","star_type":null,"good_at":"","critical_degree":null,"future_position":null,"term_id":"2017-09","deleted_at":null,"name":"\u9648\u5c91","gender":"\u5973","job":"\u5b66\u79d1\u526f\u7ecf\u7406","position":"\u57f9\u4f18\u603b\u90e8\u7ade\u8d5b\u90e8\u76ca\u667a\u9879\u76ee\u7ec4\u9879\u76ee\u7ecf\u7406","level":"3.1","this_level_on":"3\u4e2a\u6708","academic_degree":"\u672c\u79d1","university":"\u5317\u4eac\u5927\u5b66","major":"\u54f2\u5b66","study_form":"\u5168\u65e5\u5236","is_985":2,"is_211":2,"hr_status":"A","hr_position":2,"department_id":"D1000079","sub_department":"\u57f9\u4f18-\u57f9\u4f18\u603b\u90e8","team":"\u57f9\u4f18-\u57f9\u4f18\u603b\u90e8-\u7ade\u8d5b\u4e00\u90e8-\u76ca\u667a\u9879\u76ee\u7ec4","team_id":"D1005282","department_path":"D1000001-D1004200-D1000079-D1000080-D1002045-D1000205-D1005282","department":"\u57f9\u4f18\u4e8b\u4e1a\u90e8"},{"qualified":null,"second_responser":null,"workcode":"003608","star_type":null,"good_at":"","critical_degree":null,"future_position":null,"term_id":"2017-09","deleted_at":null,"name":"\u97e9\u6625\u6210","gender":"\u7537","job":"\u603b\u76d1","position":"\u57f9\u4f18\u603b\u90e8\u53cc\u5e08\u4e1a\u52a1\u90e8\u672a\u6765\u8bfe\u5802\u8d1f\u8d23\u4eba","level":"4.1","this_level_on":"1\u5e7411\u4e2a\u6708","academic_degree":"\u672c\u79d1","university":"\u5927\u5e86\u5e08\u8303\u5b66\u9662","major":"\u6570\u5b66","study_form":"\u5168\u65e5\u5236","is_985":2,"is_211":2,"hr_status":"A","hr_position":1,"department_id":"D1000079","sub_department":"\u57f9\u4f18-\u57f9\u4f18\u603b\u90e8","team":"\u57f9\u4f18-\u57f9\u4f18\u603b\u90e8-\u672a\u6765\u8bfe\u5802","team_id":"D1004185","department_path":"D1000001-D1004200-D1000079-D1000080-D1002900-D1004185","department":"\u57f9\u4f18\u4e8b\u4e1a\u90e8"},{"qualified":null,"second_responser":null,"workcode":"001977","star_type":null,"good_at":"","critical_degree":null,"future_position":null,"term_id":"2017-09","deleted_at":null,"name":"\u4faf\u5f81","gender":"\u7537","job":"\u6559\u5b66\u6559\u7814\u7ecf\u7406","position":"\u57f9\u4f18\u603b\u90e8\u6559\u5b66\u7814\u53d1\u4e2d\u5fc3\u5f55\u6392\u7ec4\u56fe\u4e66\u4e0e\u6392\u7248\u7ecf\u7406","level":"3.2","this_level_on":"8\u5e7410\u4e2a\u6708","academic_degree":"\u4e2d\u4e13\/\u6280\u6821","university":"\u5317\u4eac\u4fe1\u606f\u7ba1\u7406\u5b66\u6821","major":"\u4e2d\u82f1\u6587\u79d8\u529e\u516c\u81ea\u52a8\u5316","study_form":"\u5168\u65e5\u5236","is_985":2,"is_211":2,"hr_status":"A","hr_position":2,"department_id":"D1000079","sub_department":"\u57f9\u4f18-\u57f9\u4f18\u603b\u90e8","team":"\u57f9\u4f18-\u57f9\u4f18\u603b\u90e8-\u6559\u5b66\u7814\u53d1\u90e8-\u5f55\u6392\u7ec4","team_id":"D1004797","department_path":"D1000001-D1004200-D1000079-D1000080-D1002044-D1004642-D1004797","department":"\u57f9\u4f18\u4e8b\u4e1a\u90e8"},{"qualified":null,"second_responser":null,"workcode":"000008","star_type":null,"good_at":"","critical_degree":null,"future_position":null,"term_id":"2017-09","deleted_at":null,"name":"\u5b63\u4e91\u82f1","gender":"\u5973","job":"\u603b\u76d1","position":"\u57f9\u4f18-\u57f9\u4f18\u603b\u90e8-\u6559\u5b66\u7814\u53d1\u90e8\u603b\u76d1","level":"4.2","this_level_on":"4\u5e746\u4e2a\u6708","academic_degree":"\u672c\u79d1","university":"\u5317\u4eac\u5927\u5b66","major":"\u6570\u5b66\u79d1\u5b66\u5b66\u9662","study_form":"\u5168\u65e5\u5236","is_985":2,"is_211":2,"hr_status":"A","hr_position":1,"department_id":"D1000079","sub_department":"\u57f9\u4f18-\u57f9\u4f18\u603b\u90e8","team":"\u57f9\u4f18-\u57f9\u4f18\u603b\u90e8-\u6559\u5b66\u7814\u53d1\u90e8","team_id":"D1004642","department_path":"D1000001-D1004200-D1000079-D1000080-D1002044-D1004642","department":"\u57f9\u4f18\u4e8b\u4e1a\u90e8"},{"qualified":null,"second_responser":null,"workcode":"009806","star_type":null,"good_at":"","critical_degree":null,"future_position":null,"term_id":"2017-09","deleted_at":null,"name":"\u6731\u632f\u81e3","gender":"\u7537","job":"\u884c\u653f\u62d3\u5c55\u7ecf\u7406","position":"\u57f9\u4f18\u603b\u90e8\u62d3\u5c55\u884c\u653f\u90e8\u62d3\u5c55\u90e8\u7efc\u5408\u7ba1\u7406\u90e8\u7efc\u5408\u7ba1\u7406\u90e8\u7ecf\u7406","level":"3.2","this_level_on":"1\u5e749\u4e2a\u6708","academic_degree":"\u672c\u79d1","university":"\u5929\u6d25\u4f53\u80b2\u5b66\u9662","major":"\u4f53\u80b2\u6559\u80b2","study_form":"\u5168\u65e5\u5236","is_985":2,"is_211":2,"hr_status":"A","hr_position":2,"department_id":"D1000079","sub_department":"\u57f9\u4f18-\u57f9\u4f18\u603b\u90e8","team":"\u57f9\u4f18-\u57f9\u4f18\u603b\u90e8-\u62d3\u5c55\u884c\u653f\u90e8-\u62d3\u5c55\u90e8-\u7efc\u5408\u7ba1\u7406\u90e8","team_id":"D1001730","department_path":"D1000001-D1004200-D1000079-D1000080-D1002949-D1001943-D1000017-D1001730","department":"\u57f9\u4f18\u4e8b\u4e1a\u90e8"}]},"meta":{"timestamp":1504249686.471937,"response_time":4.60515284538269}}
]

